<svg xmlns="http://www.w3.org/2000/svg" viewBox="0 0 9.66 4.87">
  <defs>
    <style>
      .cls-1 {
        fill: none;
        stroke: #000;
        stroke-width: 0.12px;
      }
    </style>
  </defs>
  <g id="Layer_2" data-name="Layer 2">
    <g id="Layer_2-2" data-name="Layer 2">
      <g>
        <line class="cls-1" x1="0.22" y1="4.65" x2="9.53" y2="0.13"/>
        <path d="M.31,4.85a.22.22,0,1,1,.1-.29A.22.22,0,0,1,.31,4.85Z"/>
        <path d="M9.59.25A.14.14,0,0,0,9.65.07.13.13,0,0,0,9.48,0a.12.12,0,0,0-.06.18A.13.13,0,0,0,9.59.25Z"/>
      </g>
    </g>
  </g>
</svg>
